<?xml version="1.0"?>
<robot xmlns:xacro="http://www.ros.org/wiki/xacro" name="hokuyo">
    <xacro:macro name="hokuyo_laser" params="xyz rpy parent">
        <joint name="hokuyo_laser_joint" type="fixed">
            <axis xyz="0 0 1"/>
            <origin xyz="${xyz}" rpy="${rpy}"/>
            <parent link="${parent}"/>
            <child link="laser_link"/>
        </joint>
        <link name="laser_link">
            <inertial>
                <mass value="1e-5" />
                <origin xyz="0 0 0" rpy="0 0 0"/>
                <inertia ixx="1e-6" ixy="0" ixz="0" iyy="1e-6" iyz="0" izz="1e-6" />
        </inertial>
        <collision>
            <origin xyz="-0.005 0 -0.01" rpy="0 0 0"/>
            <geometry>
                <cylinder radius="0.035" length="0.14" />
            </geometry>
        </collision>
        </link>
        <!--gazebo reference="laser_link">
            <gravity>true</gravity>
            <material>Gazebo/Green</material>
            <sensor type="ray" name="laser_sensor">
                <pose>0 0 0 0 0 0</pose>
                <visualize>false</visualize>
                <update_rate>10</update_rate>
                <ray>
                    <scan>
                        <horizontal>
                            <samples>360</samples>
                            <resolution>1</resolution>
                            <min_angle>-3.14159</min_angle>
                            <max_angle>3.14159</max_angle>
                        </horizontal>
                    </scan>
                    <range>
                        <min>0.2</min>
                        <max>40</max>
                        <resolution>0.025</resolution>
                    </range>
                    <noise>
                        <type>gaussian</type>
                        <mean>0.0</mean>
                        <stddev>0.0</stddev>
                    </noise>
                </ray>
                <plugin name="gazebo_ros_laser_controller" filename="libgazebo_ros_laser.so">
                    <robotNamespace></robotNamespace>
                    <topicName>laser_scan</topicName>
                    <frameName>laser_link</frameName>
                </plugin>      
            </sensor>
        </gazebo-->
    </xacro:macro>
</robot>
