<?xml version="1.0" encoding="UTF-8"?>
<COLLADA xmlns="http://www.collada.org/2005/11/COLLADASchema" version="1.4.1">
    <asset>
        <contributor>
            <author>VCGLab</author>
            <authoring_tool>VCGLib | MeshLab</authoring_tool>
        </contributor>
        <up_axis>Y_UP</up_axis>
        <created>mar dic 29 20:25:00 2015</created>
        <modified>mar dic 29 20:25:00 2015</modified>
    </asset>
    <library_images/>
    <library_materials/>
    <library_effects/>
    <library_geometries>
        <geometry id="shape0-lib" name="shape0">
            <mesh>
                <source id="shape0-lib-positions" name="position">
                    <float_array id="shape0-lib-positions-array" count="1920">2.41278 -19.8539 -10 -3.12285e-15 -20 -11 -3.06162e-15 -20 -10 -2.41352 -19.8538 -11 -4.94897 -28.067 -11 -4.78649 -19.4185 -11 -7.37634 -27.5289 -11 -7.09103 -18.7005 -11 -9.29377 -17.7095 -11 -9.74757 -26.7812 -11 -10.7736 -29.6003 -11 -7.09163 -18.7003 -10 -11.3622 -16.459 -11 -14.25 -24.6817 -11 -14.9696 -13.2628 -11 -13.2628 -14.9696 -11 -16.3469 -23.3458 -11 -16.459 -11.3622 -11 -17.7095 -9.29377 -11 -18.3194 -21.8323 -11 -18.7005 -7.09103 -11 -17.7085 -9.29529 -10 -19.419 -4.78545 -10 -19.4185 -4.78649 -11 -19.8539 -2.41194 -11 -19.8541 -2.4098 -10 -20 3.67394e-15 -11 -19.9998 5.21805e-15 -10 -19.4185 4.78649 -11 -19.8539 2.41194 -11 -19.419 4.78545 -10 -18.0701 25.8016 -11 -18.7005 7.09103 -11 -15.75 27.2798 -11 -17.7095 9.29377 -11 -16.459 11.3622 -11 -14.25 24.6817 -11 -13.2628 14.9696 -11 -14.9696 13.2628 -11 -14.9706 13.2617 -10 -16.4594 11.3613 -10 -13.2632 14.9695 -10 -9.74757 26.7812 -11 -11.3622 16.459 -11 -11.361 16.4599 -10 -9.29377 17.7095 -11 -7.09163 18.7003 -10 -4.78649 19.4185 -11 -7.09103 18.7005 -11 -2.48394 28.3915 -11 -2.41352 19.8538 -11 4.11428e-15 28.5 -11 1.77574e-15 20 -11 1.83697e-15 20 -10 4.78649 19.4185 -11 2.41278 19.8539 -10 2.41352 19.8538 -11 4.94897 28.067 -11 7.09103 18.7005 -11 9.29377 17.7095 -11 7.37634 27.5289 -11 11.3622 16.459 -11 7.09163 18.7003 -10 9.29346 17.7095 -10 14.9696 13.2628 -11 14.25 24.6817 -11 13.2628 14.9696 -11 16.459 11.3622 -11 14.9706 13.2617 -10 16.4594 11.3613 -10 17.7095 9.29377 -11 19.4185 4.78649 -11 18.7005 7.09103 -11 18.7001 7.09272 -10 18.3194 21.8323 -11 17.7085 9.29529 -10 20 -1.22465e-15 -11 19.8539 2.41194 -11 19.9998 -9.27036e-15 -10 20.1525 -20.1525 -11 19.8539 -2.41194 -11 19.4185 -4.78649 -11 18.3194 -21.8323 -11 18.7005 -7.09103 -11 17.7095 -9.29377 -11 17.7085 -9.29529 -10 14.9696 -13.2628 -11 16.459 -11.3622 -11 13.2628 -14.9696 -11 16.4594 -11.3613 -10 9.74757 -26.7812 -11 11.3622 -16.459 -11 9.29377 -17.7095 -11 7.09103 -18.7005 -11 4.78649 -19.4185 -11 4.14204e-15 -28.5 -11 2.41352 -19.8538 -11 -29.6003 10.7736 -5 -31.0214 5.46992 -11 -26.7812 9.74757 -11 -29.6003 10.7736 -11 -30.4262 8.1547 -11 -28.067 4.94897 -5 -28.067 4.94897 -11 -28.3915 2.48394 -11 -28.067 -4.94897 -11 -28.3915 2.48394 -5 -31.5 0 -5 -28.5 0 -11 -31.5 0 -11 -28.5 0 -5 -31.3796 -2.75115 -11 -31.0214 -5.46992 -11 -31.0214 -5.46992 -5 -28.067 -4.94897 -5 -27.5289 -7.37634 -11 -29.6003 -10.7736 -5 -29.6003 -10.7736 -11 -27.2798 -15.75 -11 -25.8298 12.0446 -11 -26.7812 -9.74757 -5 -26.7812 -9.74757 -11 -28.5467 -13.3167 -11 -24.6817 14.25 -11 -24.6817 -14.25 -11 -27.2798 -15.75 -5 -23.3458 -16.3469 -11 -24.1304 20.2478 -11 -21.8323 -18.3194 -11 -23.3458 -16.3469 -5 -24.6817 -14.25 -5 -22.2717 -22.276 -11 -24.1304 -20.2478 -11 -21.8323 -18.3194 -5 -20.2478 -24.1304 -11 -20.2478 -24.1304 -5 -15.75 -27.2798 -11 -14.25 -24.6817 -5 -13.3148 -28.5476 5 -13.3117 -28.549 -11 -15.75 -27.2798 -5 -15.75 -27.2798 5 -2.74744 -31.38 -11 -7.37634 -27.5289 -5 -5.46992 -31.0214 -11 -2.74605 -31.3801 5 4.55837e-15 -31.5 -11 2.48394 -28.3915 -11 2.48394 -28.3915 -5 4.94897 -28.067 -11 5.46992 -31.0214 -11 8.15814 -30.4252 -11 10.7736 -29.6003 -11 5.46992 -31.0214 5 5.46992 -31.0214 -5 9.74757 -26.7812 -5 8.1503 -30.4273 5 12.0446 -25.8298 -11 14.25 -24.6817 -11 15.75 -27.2798 -11 12.0446 -25.8298 -5 14.25 -24.6817 -5 15.75 -27.2798 -5 18.0717 -25.8004 -11 18.3194 -21.8323 -5 20.2478 -24.1304 -11 21.8323 18.3194 -11 21.8323 -18.3194 -11 20.2478 24.1304 -11 21.8323 -18.3194 -5 24.1304 -20.2478 -5 20.1525 -20.1525 -5 24.1304 -20.2478 -11 27.2798 -15.75 -11 25.8058 -18.0641 -11 27.2798 -15.75 -5 24.6817 -14.25 -11 25.8298 -12.0446 -11 25.8298 -12.0446 -5 28.067 -4.94897 -11 28.067 4.94897 -11 26.7812 -9.74757 -11 29.6003 -10.7736 -11 30.4276 -8.14943 -11 30.426 -8.1553 5 31.0214 -5.46992 -11 28.3915 -2.48394 -11 28.3915 -2.48394 -5 28.5 -3.49024e-15 -11 31.5 -3.85764e-15 -11 31.0214 5.46992 -11 31.5 -3.85764e-15 -5 31.3799 2.7479 -11 28.067 4.94897 -5 27.5289 7.37634 -11 29.6003 10.7736 -11 28.5481 13.3137 -11 29.6003 10.7736 -5 27.5289 7.37634 -5 26.7812 9.74757 -11 26.7812 9.74757 -5 27.2798 15.75 -11 24.6817 14.25 -11 23.3458 16.3469 -11 24.1304 20.2478 -5 22.2731 22.2746 -11 23.3458 16.3469 -5 24.1304 20.2478 -11 18.3194 21.8323 -5 16.3469 23.3458 -11 15.75 27.2798 -11 14.25 24.6817 -5 13.3119 28.549 -11 10.7736 29.6003 -11 10.7736 29.6003 -5 9.74757 26.7812 -11 2.7467 31.38 -11 5.46992 31.0214 -11 4.94897 28.067 -5 5.46992 31.0214 -5 2.74604 31.3801 5 4.69715e-15 31.5 -11 -4.94897 28.067 -11 -2.48394 28.3915 -5 -5.46992 31.0214 -11 -8.1573 30.4255 -11 -10.7736 29.6003 -11 -12.0446 25.8298 -5 -9.74757 26.7812 -5 -12.0446 25.8298 -11 -14.25 24.6817 -5 -15.75 27.2798 5 -18.3194 21.8323 -11 -20.2478 24.1304 -11 -20.2478 24.1304 -5 -20.1525 20.1525 -11 -21.8323 18.3194 -11 -24.1304 20.2478 -5 -25.8038 18.067 -11 -25.8018 18.0698 5 -24.6817 14.25 -5 -27.2798 15.75 -11 -25.8298 12.0446 -5 -1.77574e-15 -20 11 2.41352 -19.8538 11 4.78686 -19.4185 10 2.41278 -19.8539 10 4.78649 -19.4185 11 7.37634 -27.5289 11 7.09103 -18.7005 11 4.94897 -28.067 11 10.7736 -29.6003 11 9.29346 -17.7095 10 9.29377 -17.7095 11 11.361 -16.4599 10 11.3622 -16.459 11 14.25 -24.6817 11 13.2628 -14.9696 11 14.9706 -13.2617 10 14.9696 -13.2628 11 18.3194 -21.8323 11 17.7095 -9.29377 11 16.459 -11.3622 11 16.3469 -23.3458 11 19.4185 -4.78649 11 18.7005 -7.09103 11 18.7001 -7.09272 10 19.419 -4.78545 10 19.8539 -2.41194 11 20.1525 20.1525 11 19.8541 -2.4098 10 20 -1.22465e-15 11 19.4185 4.78649 11 19.8541 2.4098 10 19.8539 2.41194 11 18.7005 7.09103 11 18.3194 21.8323 11 16.459 11.3622 11 18.7001 7.09272 10 17.7095 9.29377 11 15.75 27.2798 11 14.9696 13.2628 11 13.2632 14.9695 10 13.2628 14.9696 11 9.29377 17.7095 11 11.3622 16.459 11 7.09103 18.7005 11 9.29346 17.7095 10 5.46992 31.0214 11 4.78649 19.4185 11 2.41352 19.8538 11 8.33409e-15 28.5 11 3.12285e-15 20 11 2.41278 19.8539 10 3.06162e-15 20 10 -2.41352 19.8538 11 -4.78649 19.4185 11 -7.09163 18.7003 10 -9.29377 17.7095 11 -7.37634 27.5289 11 -7.09103 18.7005 11 -9.29346 17.7095 10 -9.74757 26.7812 11 -11.3622 16.459 11 -13.2628 14.9696 11 -14.9696 13.2628 11 -14.25 24.6817 11 -13.2632 14.9695 10 -16.3469 23.3458 11 -16.459 11.3622 11 -16.4594 11.3613 10 -17.7095 9.29377 11 -18.3194 21.8323 11 -18.7005 7.09103 11 -17.7085 9.29529 10 -19.8539 2.41194 11 -19.4185 4.78649 11 -19.8541 2.4098 10 -19.8539 -2.41194 11 -20 3.67394e-15 11 -20.1525 -20.1525 11 -18.3194 -21.8323 11 -19.4185 -4.78649 11 -19.8541 -2.4098 10 -19.419 -4.78545 10 -18.7001 -7.09272 10 -18.7005 -7.09103 11 -18.0661 -25.8044 11 -17.7095 -9.29377 11 -14.9696 -13.2628 11 -16.459 -11.3622 11 -14.25 -24.6817 11 -14.9706 -13.2617 10 -13.2628 -14.9696 11 -12.0446 -25.8298 11 -13.2632 -14.9695 10 -11.3622 -16.459 11 -9.29377 -17.7095 11 -4.94897 -28.067 11 -7.09103 -18.7005 11 -8.15096 -30.4272 11 -2.48394 -28.3915 11 -4.78686 -19.4185 10 -4.78649 -19.4185 11 -5.2245e-15 -28.5 11 -2.41352 -19.8538 11 25.8298 12.0446 11 26.7812 -9.74757 11 26.7812 -9.74757 5 29.6003 -10.7736 11 28.5497 -13.3103 -5 29.6003 -10.7736 5 28.549 -13.3117 11 29.6003 -10.7736 -5 24.6817 -14.25 5 27.2798 -15.75 11 24.6817 -14.25 11 23.3458 -16.3469 11 24.1304 20.2478 11 21.8323 -18.3194 5 21.8323 -18.3194 11 24.1304 -20.2478 11 20.2478 -24.1304 11 24.1304 -20.2478 5 22.276 -22.2717 11 20.2478 -24.1304 5 16.3469 -23.3458 5 15.75 -27.2798 11 15.75 -27.2798 5 13.3147 -28.5477 -5 13.3167 -28.5467 11 10.7736 -29.6003 5 9.74757 -26.7812 11 9.74757 -26.7812 5 5.46992 -31.0214 11 -5.64084e-15 -31.5 11 2.75115 -31.3796 11 2.74606 -31.3801 -5 -2.48394 -28.3915 5 -5.02291e-15 -28.5 5 -5.46992 -31.0214 11 -4.94897 -28.067 5 -5.46992 -31.0214 5 -9.74757 -26.7812 11 -8.15047 -30.4273 -5 -10.7736 -29.6003 11 -9.74757 -26.7812 5 -10.7736 -29.6003 5 -15.75 -27.2798 11 -14.25 -24.6817 5 -20.2478 -24.1304 11 -20.2478 24.1304 11 -23.3458 16.3469 11 -21.8323 -18.3194 11 -24.1304 -20.2478 5 -24.1304 -20.2478 11 -25.8022 -18.0692 11 -27.2798 -15.75 11 -27.2798 -15.75 5 -24.6817 -14.25 5 -25.8298 -12.0446 11 -24.6817 -14.25 11 -26.7812 9.74757 11 -25.8298 -12.0446 5 -29.6003 -10.7736 11 -27.5289 7.37634 11 -28.067 4.94897 11 -26.7812 -9.74757 5 -26.7812 -9.74757 11 -29.6003 -10.7736 5 -31.0214 -5.46992 11 -30.4262 -8.15469 11 -28.067 -4.94897 5 -28.067 -4.94897 11 -28.3915 -2.48394 11 -28.5 3.49024e-15 11 -31.3804 2.7424 11 -31.5 3.85764e-15 5 -31.5 3.85764e-15 11 -31.0214 5.46992 5 -31.0214 5.46992 11 -29.6003 10.7736 11 -29.6003 10.7736 5 -28.5503 13.3089 11 -24.6817 14.25 11 -27.2798 15.75 11 -27.2798 15.75 5 -24.6817 14.25 5 -21.8323 18.3194 11 -24.1304 20.2478 5 -21.8323 18.3194 5 -24.1304 20.2478 11 -22.2772 22.2706 11 -18.3194 21.8323 5 -22.2756 22.2722 -5 -16.3469 23.3458 5 -15.75 27.2798 11 -14.25 24.6817 5 -13.3172 28.5465 11 -10.7736 29.6003 11 -7.37634 27.5289 5 -2.75115 31.3796 11 -5.46992 31.0214 11 -5.46992 31.0214 5 -4.94897 28.067 11 -4.94897 28.067 5 -5.46992 31.0214 -5 9.18795e-15 31.5 5 9.00023e-15 31.5 11 8.29977e-15 28.5 5 4.94897 28.067 11 2.48394 28.3915 11 5.46992 31.0214 5 2.48394 28.3915 5 4.94897 28.067 5 10.7736 29.6003 11 8.15094 30.4272 11 9.74757 26.7812 11 10.7736 29.6003 5 12.0446 25.8298 11 14.25 24.6817 11 15.75 27.2798 5 18.0661 25.8044 11 20.2478 24.1304 11 15.75 27.2798 -5 21.8323 18.3194 11 24.1304 20.2478 5 20.1525 20.1525 5 21.8323 18.3194 5 24.6817 14.25 11 25.8019 18.0696 -5 27.2798 15.75 11 25.8011 18.0709 11 24.6817 14.25 5 27.2798 15.75 5 25.8298 12.0446 5 29.6003 10.7736 11 26.7812 9.74757 11 26.7812 9.74757 5 30.4253 8.15788 11 31.0214 5.46992 11 31.0214 5.46992 5 28.067 4.94897 5 28.067 4.94897 11 28.3915 2.48394 11 31.5 0 5 31.0214 -5.46992 11 28.067 -4.94897 11 28.5 0 5 28.3915 2.48394 5 28.5 0 11 31.5 0 11 31.38 -2.74744 11 28.067 -4.94897 5 27.5289 -7.37634 11 -2.41278 -19.8539 -10 -2.41278 19.8539 -10 -4.78686 -19.4185 -10 -4.78686 19.4185 -10 -9.29346 -17.7095 -10 -11.361 -16.4599 -10 -9.29346 17.7095 -10 -13.2632 -14.9695 -10 -14.9706 -13.2617 -10 -16.4594 -11.3613 -10 -17.7085 9.29529 -10 -18.7001 -7.09272 -10 -18.7001 7.09272 -10 -19.8541 2.4098 -10 -1.83697e-15 -20 10 -2.41278 19.8539 10 -2.41278 -19.8539 10 -4.78686 19.4185 10 -7.09163 -18.7003 10 -9.29346 -17.7095 10 -11.361 16.4599 10 -11.361 -16.4599 10 -14.9706 13.2617 10 -16.4594 -11.3613 10 -17.7085 -9.29529 10 -18.7001 7.09272 10 -19.419 4.78545 10 -19.9998 5.21805e-15 10 4.78686 19.4185 -10 4.78686 -19.4185 -10 7.09163 -18.7003 -10 11.361 16.4599 -10 9.29346 -17.7095 -10 13.2632 14.9695 -10 11.361 -16.4599 -10 13.2632 -14.9695 -10 14.9706 -13.2617 -10 19.419 4.78545 -10 18.7001 -7.09272 -10 19.419 -4.78545 -10 19.8541 2.4098 -10 19.8541 -2.4098 -10 4.78686 19.4185 10 7.09163 -18.7003 10 7.09163 18.7003 10 11.361 16.4599 10 13.2632 -14.9695 10 14.9706 13.2617 10 16.4594 11.3613 10 16.4594 -11.3613 10 17.7085 -9.29529 10 17.7085 9.29529 10 19.419 4.78545 10 19.9998 -9.27036e-15 10 9.74757 26.7812 -5 8.15047 30.4273 -5 7.37634 27.5289 -5 18.0657 25.8047 -5 20.2478 24.1304 -5 16.3469 23.3458 -5 20.2478 24.1304 5 22.2757 22.272 5 27.2798 15.75 -5 24.6817 14.25 -5 21.8323 18.3194 -5 28.5498 13.3101 5 31.0214 5.46992 -5 30.426 8.15512 -5 28.5 -3.49024e-15 -5 31.3803 -2.74301 -5 31.0214 -5.46992 -5 28.067 -4.94897 -5 24.6817 -14.25 -5 26.7812 -9.74757 -5 25.8018 -18.0698 5 20.2478 -24.1304 -5 22.2756 -22.2722 -5 18.0655 -25.8048 5 10.7736 -29.6003 -5 4.94897 -28.067 -5 5.91109e-15 -31.5 -5 4.13473e-15 -28.5 -5 -6.79927e-15 -31.5 5 4.94897 -28.067 5 7.37634 -27.5289 5 14.25 -24.6817 5 18.3194 -21.8323 5 27.2798 -15.75 5 23.3458 -16.3469 5 31.0214 -5.46992 5 27.5289 -7.37634 5 31.3804 2.74284 5 29.6003 10.7736 5 18.3194 21.8323 5 9.74757 26.7812 5 12.0446 25.8298 5 14.25 24.6817 5 13.3148 28.5476 5 5.02291e-15 31.5 -5 -27.2798 15.75 -5 -21.8323 18.3194 -5 -20.1525 20.1525 -5 -18.3194 21.8323 -5 -15.75 27.2798 -5 -13.3147 28.5477 -5 -10.7736 29.6003 5 -10.7736 29.6003 -5 -4.94897 28.067 -5 -2.74606 31.3801 -5 4.13473e-15 28.5 -5 -9.74757 26.7812 5 -8.15031 30.4273 5 -20.2478 24.1304 5 -18.0655 25.8048 5 -23.3458 16.3469 5 -27.5289 7.37634 5 -26.7812 9.74757 5 -28.067 4.94897 5 -30.426 8.15529 5 -31.0214 5.46992 -5 -28.5 3.49024e-15 5 -31.0214 -5.46992 5 -28.3915 -2.48394 5 -31.3804 -2.74284 5 -30.426 -8.15512 -5 -28.5498 -13.3101 5 -20.2478 -24.1304 5 -18.3194 -21.8323 5 -20.1525 -20.1525 5 -21.8323 -18.3194 5 -22.2757 -22.272 5 -10.7736 -29.6003 -5 -12.0446 -25.8298 5 -4.94897 -28.067 -5 -5.46992 -31.0214 -5 -9.74757 -26.7812 -5 -18.0657 -25.8047 -5 -16.3469 -23.3458 -5 -18.3194 -21.8323 -5 -24.1304 -20.2478 -5 -25.8019 -18.0696 -5 -27.5289 -7.37634 -5 -31.3803 2.74301 -5 -26.7812 9.74757 -5 -28.5497 13.3103 -5</float_array>
                    <technique_common>
                        <accessor count="640" source="#shape0-lib-positions-array" stride="3">
                            <param name="X" type="float"/>
                            <param name="Y" type="float"/>
                            <param name="Z" type="float"/>
                        </accessor>
                    </technique_common>
                </source>
                <source id="shape0-lib-normals" name="normal">
                    <float_array id="shape0-lib-normals-array" count="3828">0 0 -1 0.0604803 0.998169 -3.70336e-18 0 0 -1 -0.0604803 0.998169 7.68143e-05 0 0 -1 -0.0604486 0.998171 0 0 0 -1 0.180413 0.983591 -1.42652e-05 0.0604486 0.998171 7.68382e-05 0 0 -1 0.297454 0.954736 9.18556e-05 0 0 -1 0.180388 0.983596 4.79876e-05 0 0 -1 0.410302 0.91195 2.05453e-05 0 0 -1 0.297513 0.954718 -5.67469e-05 0 0 -1 0.517365 0.855765 -0.00011283 0 0 -1 0 0 -1 0.410339 0.911933 -7.74797e-05 0 0 -1 0.616814 0.787109 -2.22828e-05 0 0 -1 0.517267 0.855824 0.00016463 0 0 -1 0.707107 0.707107 0.000209048 0 0 -1 0.61675 0.787159 0.00017291 0 0 -1 0.787109 0.616814 0.000152357 0 0 -1 0.707176 0.707038 -2.68286e-05 0 0 -1 0.855765 0.517365 -9.62761e-05 0 0 -1 0.787202 0.616695 -0.000211141 0 0 -1 0.91195 0.410302 -0.000230283 0.855747 0.517395 -1.37165e-05 0 0 -1 0.954736 0.297454 8.24194e-05 0 0 -1 0.911861 0.410499 0.000291724 0 0 -1 0.983603 0.180347 0.00030893 0.954725 0.29749 0.000173344 0 0 -1 0.99817 0.0604686 0.000102865 0.983638 0.180157 -0.000156656 0 0 -1 0.99817 -0.0604686 -0.000234175 0 0 -1 0.998179 0.0603293 -0.000234177 0 0 -1 0.983603 -0.180347 -0.00015707 0 0 -1 0.998179 -0.0603293 0.000103165 0 0 -1 0.954736 -0.297454 0.000173387 0.983638 -0.180157 0.000309143 0 0 -1 0.91195 -0.410302 0.000291353 0 0 -1 0.954725 -0.29749 8.24849e-05 0 0 -1 0.855765 -0.517365 -1.37778e-05 0 0 -1 0.911861 -0.410499 -0.000229898 0 0 -1 0.787109 -0.616814 -0.000211282 0.855747 -0.517395 -9.63089e-05 0 0 -1 0.707107 -0.707107 -2.6974e-05 0 0 -1 0.787202 -0.616695 0.00015258 0 0 -1 0.616814 -0.787109 0.000172935 0 0 -1 0.707176 -0.707038 0.000209076 0 0 -1 0.517365 -0.855765 0.000164454 0 0 -1 0.61675 -0.787159 -2.21579e-05 0 0 -1 0.410302 -0.91195 -7.74676e-05 0 0 -1 0.517267 -0.855824 -0.000112797 0 0 -1 0.297454 -0.954736 -5.67862e-05 0 0 -1 0 0 -1 0.410339 -0.911933 2.05713e-05 0 0 -1 0.180413 -0.983591 4.79971e-05 0 0 -1 0.297513 -0.954718 9.18777e-05 0 0 -1 0.0604803 -0.998169 7.68143e-05 0 0 -1 0.180388 -0.983596 -1.42458e-05 0 0 -1 -0.0604803 -0.998169 3.70335e-18 0 0 -1 0.0604486 -0.998171 -3.7014e-18 0 0 -1 -0.180413 -0.983591 -1.42652e-05 -0.0604486 -0.998171 7.68382e-05 0 0 -1 -0.297454 -0.954736 9.18556e-05 0 0 -1 -0.180388 -0.983596 4.79876e-05 0 0 -1 -0.410302 -0.91195 2.05453e-05 0 0 -1 -0.297513 -0.954718 -5.67469e-05 0 0 -1 -0.517365 -0.855765 -0.00011283 0 0 -1 0 0 -1 -0.410339 -0.911933 -7.74797e-05 0 0 -1 -0.616814 -0.787109 -2.22828e-05 0 0 -1 -0.517267 -0.855824 0.00016463 0 0 -1 -0.707107 -0.707107 0.000209048 0 0 -1 -0.61675 -0.787159 0.00017291 0 0 -1 -0.787109 -0.616814 0.000152357 0 0 -1 -0.707176 -0.707038 -2.68286e-05 0 0 -1 -0.855765 -0.517365 -9.62761e-05 0 0 -1 -0.787202 -0.616695 -0.000211141 0 0 -1 -0.91195 -0.410302 -0.000230283 -0.855747 -0.517395 -1.37165e-05 0 0 -1 -0.954736 -0.297454 8.24194e-05 0 0 -1 -0.911861 -0.410499 0.000291724 0 0 -1 -0.983603 -0.180347 0.00030893 -0.954725 -0.29749 0.000173344 0 0 -1 -0.99817 -0.0604686 0.000102865 -0.983638 -0.180157 -0.000156656 0 0 -1 -0.99817 0.0604686 -0.000234175 0 0 -1 -0.998179 -0.0603293 -0.000234177 0 0 -1 -0.983603 0.180347 -0.00015707 0 0 -1 -0.998179 0.0603293 0.000103165 0 0 -1 -0.954736 0.297454 0.000173387 -0.983638 0.180157 0.000309143 0 0 -1 -0.91195 0.410302 0.000291353 0 0 -1 -0.954725 0.29749 8.24849e-05 0 0 -1 -0.855765 0.517365 -1.37778e-05 0 0 -1 -0.911861 0.410499 -0.000229898 0 0 -1 -0.787109 0.616814 -0.000211282 -0.855747 0.517395 -9.63089e-05 0 0 -1 -0.707107 0.707107 -2.6974e-05 0 0 -1 -0.787202 0.616695 0.00015258 0 0 -1 -0.616814 0.787109 0.000172935 0 0 -1 -0.707176 0.707038 0.000209076 0 0 -1 -0.517365 0.855765 0.000164454 0 0 -1 -0.61675 0.787159 -2.21579e-05 0 0 -1 -0.410302 0.91195 -7.74676e-05 0 0 -1 -0.517267 0.855824 -0.000112797 0 0 -1 -0.297454 0.954736 -5.67862e-05 0 0 -1 0 0 -1 -0.410339 0.911933 2.05713e-05 0 0 -1 -0.180413 0.983591 4.79971e-05 0 0 -1 -0.297513 0.954718 9.18777e-05 0 0 -1 -0.180388 0.983596 -1.42458e-05 0 0 -1 -0.953708 0.300736 0 0 0 -1 0 0 -1 0.34202 0.939692 0 -0.976289 0.21647 1.72491e-06 -0.953705 0.300745 -1.63569e-06 -0.953708 0.300736 0 -0.173648 -0.984808 0 -0.976287 0.21648 0 -0.173648 -0.984808 0 0 0 -1 -0.991445 0.130523 0 0 0 -1 0 0 -1 -0.999048 0.0436228 0 -0.991445 0.130523 0 0 0 -1 0 1 0 0 0 -1 0 0 -1 0 1 0 -0.999048 0.0436228 0 -0.999044 -0.0437111 0 -0.991433 -0.130617 2.27542e-05 -0.99905 -0.0435785 -2.28401e-05 -0.999044 -0.0437111 1.68621e-17 0.173648 -0.984808 0 -0.99145 -0.130486 0 0.173648 -0.984808 0 0 0 -1 -0.976295 -0.216442 0 0 0 -1 -0.953718 -0.300703 0 -0.976295 -0.216442 0 0 0 -1 -0.34202 0.939692 0 0 0 -1 0 0 -1 0 0 -1 0 0 -1 -0.34202 0.939692 0 -0.953718 -0.300703 0 -0.923851 -0.382752 0 -0.886977 -0.461814 1.96889e-05 -0.923895 -0.382645 -1.9775e-05 -0.923851 -0.382752 0 0 0 -1 0.5 -0.866025 0 -0.88703 -0.461712 0 0.5 -0.866025 0 0 0 -1 -0.84339 -0.537302 0 0 0 -1 0 0 -1 -0.793355 -0.608759 0 0 0 -1 -0.84339 -0.537302 0 0 0 -1 -0.642788 0.766044 0 0 0 -1 0 0 -1 0 0 -1 -0.642788 0.766044 0 -0.793355 -0.608759 0 -0.737245 -0.675625 0 -0.675555 -0.73731 1.52093e-05 -0.737305 -0.67556 -1.5207e-05 -0.737245 -0.675625 0 0.766044 -0.642788 0 -0.67562 -0.73725 0 0.766044 -0.642788 0 -0.608759 -0.793355 0 -0.537302 -0.84339 0 -0.608759 -0.793355 0 0 0 -1 -0.866025 0.5 0 -0.866025 0.5 0 -0.537302 -0.84339 0 -0.461737 -0.887017 0 -0.382671 -0.923885 9.23237e-06 -0.461785 -0.886992 -9.3432e-06 -0.461737 -0.887017 0 0.939692 -0.34202 0 -0.382721 -0.923864 0 0.939692 -0.34202 0 -0.300703 -0.953718 0 -0.216442 -0.976295 0 -0.300703 -0.953718 0 0 0 -1 -0.984808 0.173648 0 -0.984808 0.173648 0 -0.216442 -0.976295 0 -0.130558 -0.991441 0 0 0 -1 -0.0436516 -0.999047 -3.2208e-06 -0.130533 -0.991444 4.40757e-06 -0.130558 -0.991441 0 1 1.38778e-16 1.21768e-18 -0.0436329 -0.999048 0 1 5.92119e-16 -2.25453e-16 0.0436228 -0.999048 5.31186e-20 0.130523 -0.991445 0 0.0436228 -0.999048 0 -0.984808 -0.173648 0 -0.984808 -0.173648 0 0.130523 -0.991445 0 0.216525 -0.976277 0 0 0 -1 0.30079 -0.953691 2.20689e-05 0.216525 -0.976277 0 0.216399 -0.976305 -2.22439e-05 0.939692 0.34202 0 0.300667 -0.953729 0 0.939692 0.34202 0 0.382686 -0.923878 0 0.461746 -0.887012 0 0.382686 -0.923878 0 -0.866025 -0.5 0 -0.866025 -0.5 0 0.461746 -0.887012 0 0.537366 -0.843349 0 0 0 -1 0.608824 -0.793305 2.06083e-05 0.537366 -0.843349 0 0.537265 -0.843414 -2.06736e-05 0.766044 0.642788 0 0.608729 -0.793378 0 0.766044 0.642788 0 0.675592 -0.737276 0 0 0 -1 0.737276 -0.675592 0 0 0 -1 0.675592 -0.737276 0 0 0 -1 -0.642788 -0.766044 0 0 0 -1 -0.642788 -0.766044 0 0.737276 -0.675592 0 0 0 -1 0.793395 -0.608708 0 0 0 -1 0 0 -1 0 0 -1 0.843428 -0.537242 1.88855e-05 0.793395 -0.608708 0 0.793328 -0.608794 -1.87201e-05 0.5 0.866025 0 0.843369 -0.537334 0 0.5 0.866025 0 0 0 -1 0.887012 -0.461746 0 0 0 -1 0 0 -1 0 0 -1 0.923878 -0.382686 0 0.887012 -0.461746 0 0 0 -1 -0.34202 -0.939692 0 0 0 -1 0 0 -1 0 0 -1 -0.34202 -0.939692 0 0.923878 -0.382686 0 0 0 -1 0.953734 -0.300653 0 0 0 -1 0.976308 -0.216386 1.65939e-05 0.953734 -0.300653 0 0.953705 -0.300745 -1.65447e-05 0.173648 0.984808 0 0.976287 -0.21648 0 0.173648 0.984808 0 0 0 -1 0.991445 -0.130523 0 0 0 -1 0.999048 -0.0436228 0 0.991445 -0.130523 0 0 0 -1 -1.22465e-16 -1 0 0 0 -1 0 0 -1 -1.22465e-16 -1 0 0.999048 -0.0436228 0 0.999047 0.0436589 0 0.99144 0.130566 1.38187e-05 0.999047 0.0436589 -1.6842e-17 0.99905 0.0435784 -1.38663e-05 -0.173648 0.984808 0 0.99145 0.130486 0 -0.173648 0.984808 0 0.976295 0.216442 0 0.953718 0.300703 0 0.976295 0.216442 0 0 0 -1 0.34202 -0.939692 0 0 0 -1 0.34202 -0.939692 0 0.953718 0.300703 0 0.923871 0.382704 0 0.887001 0.461768 1.08425e-05 0.923871 0.382704 0 0.923895 0.382646 -1.07844e-05 -0.5 0.866025 0 0.88703 0.461712 0 -0.5 0.866025 0 0.84339 0.537302 0 0.793355 0.608759 0 0.84339 0.537302 0 0 0 -1 0.642788 -0.766044 0 0 0 -1 0.642788 -0.766044 0 0.793355 0.608759 0 0.737266 0.675603 0 0.675577 0.737289 1.00197e-05 0.737266 0.675603 0 0.737305 0.67556 -1.00251e-05 -0.766044 0.642788 0 0.67562 0.73725 0 -0.766044 0.642788 0 0.608759 0.793355 0 0.537302 0.84339 0 0.608759 0.793355 0 0 0 -1 0.866025 -0.5 0 0.866025 -0.5 0 0.537302 0.84339 0 0.46174 0.887015 0 0.382674 0.923883 8.75796e-06 0.46174 0.887015 0 0.461785 0.886992 -8.61083e-06 -0.939692 0.34202 0 0.382721 0.923864 0 -0.939692 0.34202 0 0.300703 0.953718 0 0.216442 0.976295 0 0.300703 0.953718 0 0 0 -1 0.984808 -0.173648 0 0.984808 -0.173648 0 0.216442 0.976295 0 0.130547 0.991442 0 0 0 -1 0.0436399 0.999047 -1.19756e-06 0.130547 0.991442 0 0.130533 0.991444 2.36898e-06 -1 1.94289e-16 3.40825e-18 0.0436329 0.999048 -2.36898e-18 -1 2.96059e-16 5.42935e-17 -0.0436228 0.999048 1.48677e-19 -0.130523 0.991445 0 -0.0436228 0.999048 0 0.984808 0.173648 0 0.984808 0.173648 0 -0.130523 0.991445 0 -0.216512 0.97628 0 0 0 -1 -0.300776 0.953695 1.96953e-05 -0.216512 0.97628 0 -0.216399 0.976305 -1.9796e-05 -0.939692 -0.34202 0 -0.300667 0.953729 0 -0.939692 -0.34202 0 -0.382686 0.923878 0 -0.461746 0.887012 0 -0.382686 0.923878 0 0.866025 0.5 0 0.866025 0.5 0 -0.461746 0.887012 0 -0.53734 0.843366 0 0 0 -1 -0.608799 0.793324 1.52546e-05 -0.53734 0.843366 0 -0.537265 0.843413 -1.5272e-05 -0.766044 -0.642788 0 -0.608729 0.793378 0 -0.766044 -0.642788 0 -0.675592 0.737276 0 -0.737276 0.675592 0 -0.675592 0.737276 0 0.642788 0.766044 0 0.642788 0.766044 0 -0.737276 0.675592 0 0 0 -1 -0.793362 0.60875 0 0 0 -1 -0.843399 0.537288 9.34889e-06 -0.793362 0.60875 0 -0.793329 0.608794 -9.37545e-06 -0.5 -0.866025 0 -0.843369 0.537334 0 -0.5 -0.866025 0 -0.887012 0.461746 0 -0.923878 0.382686 0 -0.887012 0.461746 0 0.34202 0.939692 0 -0.923878 0.382686 0 0 0 1 -0.0604803 0.998169 3.70335e-18 0 0 1 0.0604803 0.998169 -7.68143e-05 0 0 1 0.0604486 0.998171 -3.7014e-18 0 0 1 -0.180413 0.983591 1.42652e-05 -0.0604486 0.998171 -7.68382e-05 0 0 1 -0.297454 0.954736 -9.18556e-05 0 0 1 -0.180388 0.983596 -4.79876e-05 0 0 1 -0.410302 0.91195 -2.05453e-05 0 0 1 -0.297513 0.954718 5.67469e-05 0 0 1 -0.517365 0.855765 0.00011283 0 0 1 0 0 1 -0.410339 0.911933 7.74797e-05 0 0 1 -0.616814 0.787109 2.22828e-05 0 0 1 -0.517267 0.855824 -0.00016463 0 0 1 -0.707107 0.707107 -0.000209048 0 0 1 -0.61675 0.787159 -0.00017291 0 0 1 -0.787109 0.616814 -0.000152357 0 0 1 -0.707176 0.707038 2.68286e-05 0 0 1 -0.855765 0.517365 9.62761e-05 0 0 1 -0.787202 0.616695 0.000211141 0 0 1 -0.91195 0.410302 0.000230283 -0.855747 0.517395 1.37165e-05 0 0 1 -0.954736 0.297454 -8.24194e-05 0 0 1 -0.911861 0.410499 -0.000291724 0 0 1 -0.983603 0.180347 -0.00030893 -0.954725 0.29749 -0.000173344 0 0 1 -0.99817 0.0604686 -0.000102865 -0.983638 0.180157 0.000156656 0 0 1 -0.99817 -0.0604686 0.000234175 0 0 1 -0.998179 0.0603293 0.000234177 0 0 1 -0.983603 -0.180347 0.00015707 0 0 1 -0.998179 -0.0603293 -0.000103165 0 0 1 -0.954736 -0.297454 -0.000173387 -0.983638 -0.180157 -0.000309143 0 0 1 -0.91195 -0.410302 -0.000291353 0 0 1 -0.954725 -0.29749 -8.24849e-05 0 0 1 -0.855765 -0.517365 1.37778e-05 0 0 1 -0.911861 -0.410499 0.000229898 0 0 1 -0.787109 -0.616814 0.000211282 -0.855747 -0.517395 9.63089e-05 0 0 1 -0.707107 -0.707107 2.6974e-05 0 0 1 -0.787202 -0.616695 -0.00015258 0 0 1 -0.616814 -0.787109 -0.000172935 0 0 1 -0.707176 -0.707038 -0.000209076 0 0 1 -0.517365 -0.855765 -0.000164454 0 0 1 -0.61675 -0.787159 2.21579e-05 0 0 1 -0.410302 -0.91195 7.74676e-05 0 0 1 -0.517267 -0.855824 0.000112797 0 0 1 -0.297454 -0.954736 5.67862e-05 0 0 1 0 0 1 -0.410339 -0.911933 -2.05713e-05 0 0 1 -0.180413 -0.983591 -4.79971e-05 0 0 1 -0.297513 -0.954718 -9.18777e-05 0 0 1 -0.0604803 -0.998169 -7.68143e-05 0 0 1 -0.180388 -0.983596 1.42458e-05 0 0 1 0.0604803 -0.998169 -3.70336e-18 0 0 1 -0.0604486 -0.998171 0 0 0 1 0.180413 -0.983591 1.42652e-05 0.0604486 -0.998171 -7.68382e-05 0 0 1 0.297454 -0.954736 -9.18556e-05 0 0 1 0.180388 -0.983596 -4.79876e-05 0 0 1 0.410302 -0.91195 -2.05453e-05 0 0 1 0.297513 -0.954718 5.67469e-05 0 0 1 0.517365 -0.855765 0.00011283 0 0 1 0 0 1 0.410339 -0.911933 7.74797e-05 0 0 1 0.616814 -0.787109 2.22828e-05 0 0 1 0.517267 -0.855824 -0.00016463 0 0 1 0.707107 -0.707107 -0.000209048 0 0 1 0.61675 -0.787159 -0.00017291 0 0 1 0.787109 -0.616814 -0.000152357 0 0 1 0.707176 -0.707038 2.68286e-05 0 0 1 0.855765 -0.517365 9.62761e-05 0 0 1 0.787202 -0.616695 0.000211141 0 0 1 0.91195 -0.410302 0.000230283 0.855747 -0.517395 1.37165e-05 0 0 1 0.954736 -0.297454 -8.24194e-05 0 0 1 0.911861 -0.410499 -0.000291724 0 0 1 0.983603 -0.180347 -0.00030893 0.954725 -0.29749 -0.000173344 0 0 1 0.99817 -0.0604686 -0.000102865 0.983638 -0.180157 0.000156656 0 0 1 0.99817 0.0604686 0.000234175 0 0 1 0.998179 -0.0603293 0.000234177 0 0 1 0.983603 0.180347 0.00015707 0 0 1 0.998179 0.0603293 -0.000103165 0 0 1 0.954736 0.297454 -0.000173387 0.983638 0.180157 -0.000309143 0 0 1 0.91195 0.410302 -0.000291353 0 0 1 0.954725 0.29749 -8.24849e-05 0 0 1 0.855765 0.517365 1.37778e-05 0 0 1 0.911861 0.410499 0.000229898 0 0 1 0.787109 0.616814 0.000211282 0.855747 0.517395 9.63089e-05 0 0 1 0.707107 0.707107 2.6974e-05 0 0 1 0.787202 0.616695 -0.00015258 0 0 1 0.616814 0.787109 -0.000172935 0 0 1 0.707176 0.707038 -0.000209076 0 0 1 0.517365 0.855765 -0.000164454 0 0 1 0.61675 0.787159 2.21579e-05 0 0 1 0.410302 0.91195 7.74676e-05 0 0 1 0.517267 0.855824 0.000112797 0 0 1 0.297454 0.954736 5.67862e-05 0 0 1 0 0 1 0.410339 0.911933 -2.05713e-05 0 0 1 0.180413 0.983591 -4.79971e-05 0 0 1 0.297513 0.954718 -9.18777e-05 0 0 1 0.180388 0.983596 1.42458e-05 0 0 1 0.34202 0.939692 0 0 0 1 0 0 1 0 0 1 0 0 1 0 0 1 0.953718 -0.300703 0 0.34202 0.939692 0 0.953718 -0.300703 0 0.923885 -0.382671 0 0.887017 -0.461737 -4.27761e-06 0.923894 -0.382648 4.3554e-06 0.923885 -0.382671 0 0 0 1 -0.5 -0.866025 0 0.887029 -0.461715 0 -0.5 -0.866025 0 0 0 1 0.84339 -0.537302 0 0 0 1 0 0 1 0.793355 -0.608759 0 0 0 1 0.84339 -0.537302 0 0 0 1 0.642788 0.766044 0 0 0 1 0 0 1 0 0 1 0.642788 0.766044 0 0.793355 -0.608759 0 0.73731 -0.675555 0 0.675625 -0.737245 1.59401e-06 0.737303 -0.675562 -1.59715e-06 0.737309 -0.675555 0 -0.766044 -0.642788 0 0.675618 -0.737252 0 -0.766044 -0.642788 0 0.608759 -0.793355 0 0.537302 -0.84339 0 0.608759 -0.793355 0 0 0 1 0.866025 0.5 0 0.866025 0.5 0 0.537302 -0.84339 0 0.461814 -0.886977 0 0.382752 -0.923851 6.1649e-06 0.461783 -0.886993 -6.04771e-06 0.461814 -0.886977 0 -0.939692 -0.34202 0 0.382719 -0.923865 0 -0.939692 -0.34202 0 0.300703 -0.953718 0 0.216442 -0.976295 0 0.300703 -0.953718 0 0 0 1 0.984808 0.173648 0 0.984808 0.173648 0 0.216442 -0.976295 0 0.130617 -0.991433 0 0 0 1 0.0437111 -0.999044 1.34727e-05 0.130534 -0.991444 -1.43833e-05 0.130617 -0.991433 0 -1 1.38778e-16 -3.35992e-17 0.0436327 -0.999048 -8.42423e-18 -1 5.92119e-16 1.93071e-16 -0.0436228 -0.999048 -1.46569e-18 -0.130523 -0.991445 0 -0.0436228 -0.999048 0 0.984808 -0.173648 0 0.984808 -0.173648 0 -0.130523 -0.991445 0 -0.21641 -0.976303 0 0 0 1 -0.300677 -0.953726 -1.4269e-06 -0.21641 -0.976303 0 -0.216402 -0.976304 1.32297e-06 -0.939692 0.34202 0 -0.300669 -0.953728 0 -0.939692 0.34202 0 -0.382686 -0.923878 0 -0.461746 -0.887012 0 -0.382686 -0.923878 0 0.866025 -0.5 0 0.866025 -0.5 0 -0.461746 -0.887012 0 -0.537275 -0.843407 0 0 0 1 -0.608738 -0.793371 -1.57119e-06 -0.537275 -0.843407 0 -0.537268 -0.843412 1.44681e-06 -0.766044 0.642788 0 -0.608731 -0.793377 0 -0.766044 0.642788 0 -0.675592 -0.737276 0 0 0 1 -0.737276 -0.675592 0 0 0 1 -0.675592 -0.737276 0 0 0 1 0.642788 -0.766044 0 0 0 1 0.642788 -0.766044 0 -0.737276 -0.675592 0 0 0 1 -0.793335 -0.608785 0 0 0 1 0 0 1 0 0 1 -0.843375 -0.537325 -1.38205e-06 -0.793335 -0.608785 0 -0.79333 -0.608792 1.37348e-06 -0.5 0.866025 0 -0.843371 -0.537332 0 -0.5 0.866025 0 0 0 1 -0.887012 -0.461746 0 0 0 1 0 0 1 0 0 1 -0.923878 -0.382686 0 -0.887012 -0.461746 0 0 0 1 0.34202 -0.939692 0 0 0 1 0 0 1 0 0 1 0.34202 -0.939692 0 -0.923878 -0.382686 0 0 0 1 -0.953708 -0.300736 0 0 0 1 -0.976289 -0.21647 -1.26763e-06 -0.953708 -0.300736 0 -0.953705 -0.300742 1.21491e-06 -0.173648 0.984808 0 -0.976288 -0.216477 0 -0.173648 0.984808 0 0 0 1 -0.991445 -0.130523 0 0 0 1 -0.999048 -0.0436228 0 -0.991445 -0.130523 0 0 0 1 -1.22465e-16 -1 0 0 0 1 0 0 1 -1.22465e-16 -1 0 -0.999048 -0.0436228 0 -0.99905 0.0435714 0 -0.991451 0.130479 1.60972e-06 -0.99905 0.0435714 -1.68083e-17 -0.99905 0.0435813 -1.69168e-06 0.173648 0.984808 0 -0.99145 0.130488 0 0.173648 0.984808 0 -0.976295 0.216442 0 -0.953718 0.300703 0 -0.976295 0.216442 0 0 0 1 -0.34202 -0.939692 0 0 0 1 -0.34202 -0.939692 0 -0.953718 0.300703 0 -0.923903 0.382626 0 -0.88704 0.461693 4.13974e-06 -0.923903 0.382626 0 -0.923894 0.382648 -4.06069e-06 0.5 0.866025 0 -0.887029 0.461715 0 0.5 0.866025 0 -0.84339 0.537302 0 -0.793355 0.608759 0 -0.84339 0.537302 0 0 0 1 -0.642788 -0.766044 0 0 0 1 -0.642788 -0.766044 0 -0.793355 0.608759 0 -0.737327 0.675536 0 -0.675645 0.737228 6.11526e-06 -0.737303 0.675562 -6.13098e-06 -0.737327 0.675536 0 0.766044 0.642788 0 -0.675618 0.737252 0 0.766044 0.642788 0 -0.608759 0.793355 0 -0.537302 0.84339 0 -0.608759 0.793355 0 0 0 1 -0.866025 -0.5 0 -0.866025 -0.5 0 -0.537302 0.84339 0 -0.461823 0.886972 0 -0.38276 0.923848 7.77227e-06 -0.461783 0.886993 -7.79666e-06 -0.461823 0.886972 0 0.939692 0.34202 0 -0.382719 0.923865 0 0.939692 0.34202 0 -0.300703 0.953718 0 -0.216442 0.976295 0 -0.300703 0.953718 0 0 0 1 -0.984808 -0.173648 0 -0.984808 -0.173648 0 -0.216442 0.976295 0 -0.130617 0.991433 0 0 0 1 -0.0437111 0.999044 1.34727e-05 -0.130534 0.991444 -1.43833e-05 -0.130617 0.991433 0 1 -2.22045e-16 -5.72114e-18 -0.0436327 0.999048 0 1 -2.96059e-16 3.12863e-17 0.0436228 0.999048 -2.49572e-19 0.130523 0.991445 0 0.0436228 0.999048 0 -0.984808 0.173648 0 -0.984808 0.173648 0 0.130523 0.991445 0 0.21641 0.976303 0 0 0 1 0.300677 0.953726 -1.29582e-06 0.216402 0.976304 1.34817e-06 0.21641 0.976303 0 0.939692 -0.34202 0 0.300669 0.953728 0 0.939692 -0.34202 0 0.382686 0.923878 0 0.461746 0.887012 0 0.382686 0.923878 0 -0.866025 0.5 0 -0.866025 0.5 0 0.461746 0.887012 0 0.537274 0.843408 0 0 0 1 0.608737 0.793372 -1.3297e-06 0.537268 0.843412 1.28439e-06 0.537274 0.843408 0 0.766044 -0.642788 0 0.608731 0.793377 0 0.766044 -0.642788 0 0.675592 0.737276 0 0.737276 0.675592 0 0.675592 0.737276 0 -0.642788 0.766044 0 -0.642788 0.766044 0 0.737276 0.675592 0 0 0 1 0.793316 0.60881 0 0 0 1 0.843358 0.537352 4.11642e-06 0.79333 0.608792 -4.03472e-06 0.793316 0.60881 0 0.5 -0.866025 0 0.843371 0.537332 0 0.5 -0.866025 0 0.887012 0.461746 0 0.923878 0.382686 0 0.887012 0.461746 0 0 0 1 -0.34202 0.939692 0 0 0 1 0 0 1 -0.34202 0.939692 0 0.923878 0.382686 0 0 0 1 0.953692 0.300786 0 0 0 1 0.976278 0.216521 7.74227e-06 0.953705 0.300742 -7.80687e-06 0.953692 0.300786 0 0.173648 -0.984808 0 0.976288 0.216477 0 0.173648 -0.984808 0 0 0 1 0.991445 0.130523 0 0 0 1 0.999048 0.0436228 0 0.991445 0.130523 0 0 0 1 0 1 0 0 0 1 0 0 1 0 1 0 0.999048 0.0436228 0 0.999047 -0.0436516 0 0.991441 -0.130558 -1.21759e-05 0.99905 -0.0435813 1.21033e-05 0.999047 -0.0436516 1.68392e-17 -0.173648 -0.984808 0 0.99145 -0.130488 0 -0.173648 -0.984808 0 0.976295 -0.216442 0 0.976295 -0.216442 0 0 0 -1 0 0 -1 0 0 -1 0 0 -1 0 0 -1 0 0 -1 0 0 -1 0 0 -1 0 0 -1 0 0 -1 0 0 -1 0 0 -1 0 0 -1 0 0 -1 0 0 -1 0 0 -1 0 0 -1 0 0 -1 0 0 -1 0 0 -1 0 0 -1 0 0 -1 0 0 -1 0 0 -1 0 0 -1 0 0 -1 0 0 -1 0 0 1 0 0 1 0 0 1 0 0 1 0 0 1 0 0 1 0 0 1 0 0 1 0 0 1 0 0 1 0 0 1 0 0 1 0 0 1 0 0 1 0 0 1 0 0 1 0 0 1 0 0 1 0 0 1 0 0 1 0 0 1 0 0 1 0 0 1 0 0 1 0 0 1 0 0 1 0 0 1 0 0 -1 0 0 -1 0 0 -1 0 0 -1 0 0 -1 0 0 -1 0 0 -1 0 0 -1 0 0 -1 0 0 -1 0 0 -1 0 0 -1 0 0 -1 0 0 -1 0 0 -1 0 0 -1 0 0 -1 0 0 -1 0 0 -1 0 0 -1 0 0 -1 0 0 -1 0 0 -1 0 0 1 0 0 1 0 0 1 0 0 1 0 0 1 0 0 1 0 0 1 0 0 1 0 0 1 0 0 1 0 0 1 0 0 1 0 0 1 0 0 1 0 0 1 0 0 1 0 0 1 0 0 1 0 0 1 0 0 1 0 0 1 0 0 1 0 0 1 0 0 -1 0.300669 0.953728 0 0 0 -1 0 0 -1 0 0 -1 0.382721 0.923864 0 0 0 -1 0.608731 0.793377 0 0 0 -1 0 0 -1 0 0 -1 0.67562 0.73725 0 0 0 -1 0.843371 0.537332 0 0 0 -1 0 0 -1 0 0 -1 0.88703 0.461712 0 0 0 -1 0.976288 0.216477 0 0 0 -1 0 0 -1 0 0 -1 0.99145 0.130486 0 0 0 -1 0.99145 -0.130488 0 0 0 -1 0 0 -1 0 0 -1 0.976287 -0.21648 0 0 0 -1 0.887028 -0.461715 0 0 0 -1 0 0 -1 0 0 -1 0.843369 -0.537334 0 0 0 -1 0.675618 -0.737252 0 0 0 -1 0 0 -1 0 0 -1 0.608729 -0.793378 0 0 0 -1 0.382719 -0.923865 0 0 0 -1 0 0 -1 0 0 -1 0.300667 -0.953729 0 0 0 -1 0.0436327 -0.999048 5.54587e-17 0 0 -1 0 0 -1 0 0 -1 -0.0436329 -0.999048 0 0 0 1 0 0 1 0 0 1 0 0 1 0 0 1 0 0 1 0 0 1 0 0 1 0 0 1 0 0 1 0 0 1 0 0 1 0 0 1 0 0 1 0 0 1 0 0 1 0 0 1 0 0 1 0 0 1 0 0 1 0 0 1 0 0 1 0 0 1 0 0 1 0 0 1 0 0 1 0 0 1 0 0 1 0 0 1 0 0 1 0 0 1 0 0 1 0 0 1 0 0 1 0.0436329 0.999048 -1.81733e-17 0 0 1 0 0 1 0 0 1 -0.0436327 0.999048 0 0 0 -1 -0.843369 0.537334 0 -0.887028 0.461715 0 0 0 -1 0 0 -1 -0.675618 0.737252 0 0 0 -1 0 0 -1 0 0 -1 -0.608729 0.793378 0 0 0 -1 -0.382719 0.923865 0 0 0 -1 0 0 -1 0 0 -1 -0.300667 0.953729 0 0 0 -1 0 0 -1 0 0 -1 0 0 1 0 0 1 0 0 1 0 0 1 0 0 1 0 0 1 0 0 1 0 0 1 0 0 1 0 0 1 0 0 1 0 0 1 0 0 1 -0.976287 0.21648 0 0 0 1 0 0 1 0 0 1 -0.99145 0.130488 0 0 0 1 -0.99145 -0.130486 0 0 0 1 0 0 1 0 0 1 -0.976288 -0.216477 0 0 0 1 -0.88703 -0.461712 0 0 0 1 0 0 1 0 0 1 -0.843371 -0.537332 0 0 0 1 -0.67562 -0.73725 0 0 0 1 0 0 1 0 0 1 -0.608731 -0.793377 0 0 0 1 -0.382721 -0.923864 0 0 0 1 0 0 1 0 0 1 -0.300669 -0.953728 0 0 0 1 0 0 1 0 0 1 0 0 -1 0 0 -1 0 0 -1 0 0 -1 0 0 -1 0 0 -1 0 0 -1 0 0 -1 0 0 -1 0 0 -1 0 0 -1 0 0 -1 0 0 -1 0 0 -1 0 0 -1 0 0 -1 0 0 -1 0 0 -1 0 0 -1 0 0 -1 0 0 -1 0 0 -1 0 0 -1</float_array>
                    <technique_common>
                        <accessor count="1276" source="#shape0-lib-normals-array" stride="3">
                            <param name="X" type="float"/>
                            <param name="Y" type="float"/>
                            <param name="Z" type="float"/>
                        </accessor>
                    </technique_common>
                </source>
                <vertices id="shape0-lib-vertices">
                    <input semantic="POSITION" source="#shape0-lib-positions"/>
                </vertices>
                <triangles count="1276">
                    <input offset="0" semantic="VERTEX" source="#shape0-lib-vertices"/>
                    <input offset="1" semantic="NORMAL" source="#shape0-lib-normals"/>
                    <p>142 0 3 0 1 0 2 1 1 1 3 1 95 2 1 2 96 2 0 3 96 3 1 3 95 4 142 4 1 4 0 5 1 5 2 5 142 6 5 6 3 6 495 7 3 7 5 7 495 8 2 8 3 8 4 9 7 9 5 9 497 10 5 10 7 10 142 11 4 11 5 11 497 12 495 12 5 12 6 13 8 13 7 13 11 14 7 14 8 14 4 15 6 15 7 15 11 16 497 16 7 16 10 17 12 17 8 17 499 18 8 18 12 18 9 19 10 19 8 19 6 20 9 20 8 20 499 21 11 21 8 21 139 22 15 22 12 22 500 23 12 23 15 23 10 24 139 24 12 24 500 25 499 25 12 25 13 26 14 26 15 26 502 27 15 27 14 27 139 28 13 28 15 28 502 29 500 29 15 29 16 30 17 30 14 30 503 31 14 31 17 31 13 32 16 32 14 32 503 33 502 33 14 33 19 34 18 34 17 34 504 35 17 35 18 35 16 36 19 36 17 36 504 37 503 37 17 37 19 38 20 38 18 38 21 39 18 39 20 39 21 40 504 40 18 40 134 41 23 41 20 41 506 42 20 42 23 42 19 43 134 43 20 43 506 44 21 44 20 44 134 45 24 45 23 45 22 46 23 46 24 46 22 47 506 47 23 47 134 48 26 48 24 48 25 49 24 49 26 49 25 50 22 50 24 50 235 51 29 51 26 51 27 52 26 52 29 52 235 53 26 53 134 53 27 54 25 54 26 54 232 55 28 55 29 55 508 56 29 56 28 56 235 57 232 57 29 57 508 58 27 58 29 58 232 59 32 59 28 59 30 60 28 60 32 60 30 61 508 61 28 61 31 62 34 62 32 62 507 63 32 63 34 63 232 64 31 64 32 64 507 65 30 65 32 65 33 66 35 66 34 66 505 67 34 67 35 67 31 68 33 68 34 68 505 69 507 69 34 69 33 70 38 70 35 70 40 71 35 71 38 71 40 72 505 72 35 72 36 73 37 73 38 73 39 74 38 74 37 74 33 75 36 75 38 75 39 76 40 76 38 76 229 77 43 77 37 77 41 78 37 78 43 78 36 79 229 79 37 79 41 80 39 80 37 80 42 81 45 81 43 81 44 82 43 82 45 82 229 83 42 83 43 83 44 84 41 84 43 84 225 85 48 85 45 85 501 86 45 86 48 86 42 87 225 87 45 87 501 88 44 88 45 88 222 89 47 89 48 89 46 90 48 90 47 90 224 91 222 91 48 91 225 92 224 92 48 92 46 93 501 93 48 93 49 94 50 94 47 94 498 95 47 95 50 95 222 96 49 96 47 96 498 97 46 97 47 97 51 98 52 98 50 98 496 99 50 99 52 99 49 100 51 100 50 100 496 101 498 101 50 101 216 102 56 102 52 102 53 103 52 103 56 103 51 104 216 104 52 104 53 105 496 105 52 105 216 106 54 106 56 106 55 107 56 107 54 107 55 108 53 108 56 108 57 109 58 109 54 109 523 110 54 110 58 110 216 111 57 111 54 111 523 112 55 112 54 112 60 113 59 113 58 113 62 114 58 114 59 114 57 115 60 115 58 115 62 116 523 116 58 116 213 117 61 117 59 117 63 118 59 118 61 118 215 119 213 119 59 119 60 120 215 120 59 120 63 121 62 121 59 121 212 122 66 122 61 122 526 123 61 123 66 123 213 124 212 124 61 124 526 125 63 125 61 125 65 126 64 126 66 126 528 127 66 127 64 127 212 128 65 128 66 128 528 129 526 129 66 129 209 130 67 130 64 130 68 131 64 131 67 131 65 132 209 132 64 132 68 133 528 133 64 133 74 134 70 134 67 134 69 135 67 135 70 135 209 136 74 136 67 136 69 137 68 137 67 137 74 138 72 138 70 138 75 139 70 139 72 139 75 140 69 140 70 140 168 141 71 141 72 141 73 142 72 142 71 142 74 143 168 143 72 143 73 144 75 144 72 144 168 145 77 145 71 145 532 146 71 146 77 146 532 147 73 147 71 147 168 148 76 148 77 148 535 149 77 149 76 149 535 150 532 150 77 150 79 151 80 151 76 151 78 152 76 152 80 152 168 153 79 153 76 153 78 154 535 154 76 154 82 155 81 155 80 155 536 156 80 156 81 156 79 157 82 157 80 157 536 158 78 158 80 158 82 159 83 159 81 159 534 160 81 160 83 160 534 161 536 161 81 161 163 162 84 162 83 162 533 163 83 163 84 163 82 164 163 164 83 164 533 165 534 165 83 165 159 166 87 166 84 166 85 167 84 167 87 167 163 168 159 168 84 168 85 169 533 169 84 169 159 170 86 170 87 170 89 171 87 171 86 171 89 172 85 172 87 172 158 173 88 173 86 173 531 174 86 174 88 174 159 175 158 175 86 175 531 176 89 176 86 176 157 177 91 177 88 177 530 178 88 178 91 178 158 179 157 179 88 179 530 180 531 180 88 180 90 181 92 181 91 181 529 182 91 182 92 182 157 183 90 183 91 183 529 184 530 184 91 184 151 185 93 185 92 185 527 186 92 186 93 186 90 187 151 187 92 187 527 188 529 188 92 188 149 189 94 189 93 189 525 190 93 190 94 190 150 191 149 191 93 191 151 192 150 192 93 192 525 193 527 193 93 193 147 194 96 194 94 194 524 195 94 195 96 195 149 196 147 196 94 196 524 197 525 197 94 197 147 198 95 198 96 198 0 199 524 199 96 199 98 200 101 200 100 200 97 201 100 201 101 201 103 202 98 202 100 202 99 203 103 203 100 203 97 204 99 204 100 204 613 205 101 205 98 205 613 206 422 206 101 206 97 207 101 207 422 207 102 208 98 208 103 208 614 209 613 209 98 209 102 210 614 210 98 210 108 211 104 211 103 211 102 212 103 212 104 212 105 213 108 213 103 213 99 214 105 214 103 214 106 215 104 215 108 215 102 216 104 216 106 216 111 217 109 217 108 217 107 218 108 218 109 218 112 219 111 219 108 219 105 220 112 220 108 220 110 221 108 221 107 221 106 222 108 222 110 222 107 223 109 223 111 223 618 224 111 224 112 224 618 225 417 225 111 225 107 226 111 226 417 226 114 227 112 227 105 227 113 228 618 228 112 228 114 229 113 229 112 229 99 230 115 230 105 230 114 231 105 231 115 231 99 232 121 232 115 232 636 233 115 233 121 233 114 234 115 234 636 234 122 235 117 235 121 235 116 236 121 236 117 236 118 237 122 237 121 237 123 238 118 238 121 238 119 239 123 239 121 239 99 240 119 240 121 240 120 241 121 241 116 241 636 242 121 242 120 242 116 243 117 243 122 243 620 244 122 244 118 244 620 245 409 245 122 245 116 246 122 246 409 246 123 247 124 247 118 247 130 248 118 248 124 248 125 249 620 249 118 249 130 250 125 250 118 250 127 251 126 251 124 251 130 252 124 252 126 252 123 253 127 253 124 253 236 254 128 254 126 254 129 255 126 255 128 255 127 256 236 256 126 256 130 257 126 257 129 257 131 258 132 258 128 258 634 259 128 259 132 259 134 260 131 260 128 260 235 261 134 261 128 261 236 262 235 262 128 262 133 263 128 263 634 263 129 264 128 264 133 264 634 265 132 265 131 265 625 266 131 266 134 266 625 267 394 267 131 267 634 268 131 268 394 268 633 269 134 269 19 269 135 270 625 270 134 270 633 271 135 271 134 271 633 272 19 272 16 272 632 273 16 273 13 273 633 274 16 274 632 274 139 275 136 275 13 275 140 276 13 276 136 276 137 277 13 277 140 277 632 278 13 278 137 278 140 279 136 279 139 279 138 280 139 280 10 280 138 281 141 281 139 281 140 282 139 282 141 282 630 283 10 283 9 283 626 284 138 284 10 284 630 285 626 285 10 285 630 286 9 286 6 286 143 287 6 287 4 287 630 288 6 288 143 288 142 289 144 289 4 289 629 290 4 290 144 290 628 291 4 291 629 291 143 292 4 292 628 292 629 293 144 293 142 293 95 294 146 294 142 294 145 295 142 295 146 295 145 296 382 296 142 296 629 297 142 297 382 297 576 298 146 298 95 298 145 299 146 299 575 299 576 300 575 300 146 300 576 301 95 301 147 301 148 302 147 302 149 302 576 303 147 303 148 303 154 304 149 304 150 304 574 305 149 305 154 305 148 306 149 306 574 306 154 307 150 307 151 307 90 308 152 308 151 308 156 309 151 309 152 309 153 310 154 310 151 310 156 311 153 311 151 311 155 312 152 312 90 312 156 313 152 313 573 313 155 314 573 314 152 314 155 315 90 315 157 315 160 316 157 316 158 316 155 317 157 317 160 317 162 318 158 318 159 318 161 319 158 319 162 319 160 320 158 320 161 320 162 321 159 321 163 321 82 322 165 322 163 322 572 323 163 323 165 323 368 324 162 324 163 324 572 325 368 325 163 325 164 326 165 326 82 326 572 327 165 327 570 327 164 328 570 328 165 328 164 329 82 329 79 329 166 330 167 330 79 330 171 331 79 331 167 331 168 332 166 332 79 332 164 333 79 333 171 333 203 334 172 334 167 334 170 335 167 335 172 335 166 336 203 336 167 336 169 337 167 337 170 337 171 338 167 338 169 338 176 339 174 339 172 339 170 340 172 340 174 340 202 341 176 341 172 341 203 342 202 342 172 342 176 343 173 343 174 343 569 344 174 344 173 344 363 345 170 345 174 345 569 346 363 346 174 346 567 347 173 347 176 347 569 348 173 348 175 348 567 349 175 349 173 349 199 350 177 350 176 350 567 351 176 351 177 351 201 352 199 352 176 352 202 353 201 353 176 353 199 354 181 354 177 354 178 355 177 355 181 355 567 356 177 356 178 356 179 357 182 357 181 357 353 358 181 358 182 358 180 359 179 359 181 359 194 360 180 360 181 360 199 361 194 361 181 361 568 362 181 362 353 362 178 363 181 363 568 363 185 364 183 364 182 364 353 365 182 365 183 365 179 366 185 366 182 366 184 367 183 367 185 367 351 368 353 368 183 368 184 369 351 369 183 369 566 370 185 370 179 370 184 371 185 371 565 371 566 372 565 372 185 372 188 373 186 373 179 373 566 374 179 374 186 374 180 375 188 375 179 375 187 376 186 376 188 376 566 377 186 377 187 377 192 378 189 378 188 378 191 379 188 379 189 379 190 380 192 380 188 380 180 381 190 381 188 381 563 382 188 382 191 382 187 383 188 383 563 383 191 384 189 384 192 384 586 385 192 385 190 385 485 386 191 386 192 386 586 387 485 387 192 387 193 388 190 388 180 388 586 389 190 389 561 389 193 390 561 390 190 390 193 391 180 391 194 391 198 392 194 392 199 392 193 393 194 393 198 393 196 394 195 394 199 394 197 395 199 395 195 395 201 396 196 396 199 396 200 397 199 397 197 397 198 398 199 398 200 398 197 399 195 399 196 399 560 400 196 400 201 400 587 401 197 401 196 401 560 402 587 402 196 402 558 403 201 403 202 403 560 404 201 404 557 404 558 405 557 405 201 405 558 406 202 406 203 406 206 407 203 407 166 407 558 408 203 408 206 408 205 409 207 409 166 409 204 410 166 410 207 410 168 411 205 411 166 411 559 412 166 412 204 412 206 413 166 413 559 413 204 414 207 414 205 414 556 415 205 415 168 415 466 416 204 416 205 416 556 417 466 417 205 417 208 418 168 418 74 418 556 419 168 419 553 419 208 420 553 420 168 420 208 421 74 421 209 421 554 422 209 422 65 422 208 423 209 423 554 423 212 424 210 424 65 424 464 425 65 425 210 425 211 426 65 426 464 426 554 427 65 427 211 427 464 428 210 428 212 428 592 429 212 429 213 429 461 430 464 430 212 430 592 431 461 431 212 431 549 432 213 432 215 432 592 433 213 433 214 433 549 434 214 434 213 434 549 435 215 435 60 435 551 436 60 436 57 436 549 437 60 437 551 437 216 438 217 438 57 438 219 439 57 439 217 439 218 440 57 440 219 440 551 441 57 441 218 441 219 442 217 442 216 442 51 443 221 443 216 443 220 444 216 444 221 444 452 445 219 445 216 445 220 446 452 446 216 446 604 447 221 447 51 447 593 448 220 448 221 448 604 449 593 449 221 449 604 450 51 450 49 450 223 451 49 451 222 451 604 452 49 452 223 452 446 453 222 453 224 453 602 454 222 454 446 454 223 455 222 455 602 455 446 456 224 456 225 456 42 457 226 457 225 457 606 458 225 458 226 458 443 459 446 459 225 459 606 460 443 460 225 460 228 461 226 461 42 461 606 462 226 462 601 462 228 463 601 463 226 463 228 464 42 464 229 464 227 465 229 465 36 465 228 466 229 466 227 466 598 467 36 467 33 467 230 468 36 468 598 468 227 469 36 469 230 469 598 470 33 470 31 470 232 471 233 471 31 471 608 472 31 472 233 472 231 473 598 473 31 473 608 474 231 474 31 474 597 475 233 475 232 475 608 476 233 476 234 476 597 477 234 477 233 477 597 478 232 478 235 478 596 479 235 479 236 479 597 480 235 480 596 480 237 481 236 481 127 481 595 482 236 482 237 482 596 483 236 483 595 483 123 484 238 484 127 484 237 485 127 485 238 485 123 486 241 486 238 486 239 487 238 487 241 487 429 488 237 488 238 488 239 489 429 489 238 489 240 490 241 490 123 490 239 491 241 491 594 491 240 492 594 492 241 492 240 493 123 493 119 493 242 494 119 494 99 494 240 495 119 495 242 495 638 496 99 496 97 496 242 497 99 497 638 497 376 498 244 498 243 498 509 499 243 499 244 499 344 500 243 500 345 500 511 501 345 501 243 501 344 502 376 502 243 502 509 503 511 503 243 503 376 504 247 504 244 504 246 505 244 505 247 505 246 506 509 506 244 506 250 507 249 507 247 507 245 508 247 508 249 508 376 509 250 509 247 509 245 510 246 510 247 510 248 511 253 511 249 511 538 512 249 512 253 512 250 513 248 513 249 513 538 514 245 514 249 514 251 515 255 515 253 515 252 516 253 516 255 516 372 517 251 517 253 517 248 518 372 518 253 518 252 519 538 519 253 519 370 520 257 520 255 520 254 521 255 521 257 521 251 522 370 522 255 522 254 523 252 523 255 523 256 524 259 524 257 524 541 525 257 525 259 525 370 526 256 526 257 526 541 527 254 527 257 527 263 528 262 528 259 528 258 529 259 529 262 529 256 530 263 530 259 530 258 531 541 531 259 531 260 532 261 532 262 532 544 533 262 533 261 533 263 534 260 534 262 534 544 535 258 535 262 535 260 536 265 536 261 536 545 537 261 537 265 537 545 538 544 538 261 538 362 539 264 539 265 539 266 540 265 540 264 540 260 541 362 541 265 541 266 542 545 542 265 542 362 543 268 543 264 543 267 544 264 544 268 544 267 545 266 545 264 545 362 546 271 546 268 546 270 547 268 547 271 547 270 548 267 548 268 548 269 549 274 549 271 549 548 550 271 550 274 550 269 551 271 551 362 551 548 552 270 552 271 552 276 553 272 553 274 553 273 554 274 554 272 554 269 555 276 555 274 555 273 556 548 556 274 556 276 557 275 557 272 557 547 558 272 558 275 558 547 559 273 559 272 559 462 560 279 560 275 560 278 561 275 561 279 561 276 562 462 562 275 562 278 563 547 563 275 563 280 564 277 564 279 564 546 565 279 565 277 565 462 566 280 566 279 566 546 567 278 567 279 567 280 568 281 568 277 568 543 569 277 569 281 569 543 570 546 570 277 570 460 571 283 571 281 571 542 572 281 572 283 572 280 573 460 573 281 573 542 574 543 574 281 574 459 575 285 575 283 575 282 576 283 576 285 576 460 577 459 577 283 577 282 578 542 578 283 578 457 579 284 579 285 579 540 580 285 580 284 580 459 581 457 581 285 581 540 582 282 582 285 582 456 583 286 583 284 583 287 584 284 584 286 584 457 585 456 585 284 585 287 586 540 586 284 586 450 587 289 587 286 587 539 588 286 588 289 588 288 589 450 589 286 589 456 590 288 590 286 590 539 591 287 591 286 591 451 592 290 592 289 592 537 593 289 593 290 593 450 594 451 594 289 594 537 595 539 595 289 595 291 596 292 596 290 596 293 597 290 597 292 597 451 598 291 598 290 598 293 599 537 599 290 599 441 600 295 600 292 600 294 601 292 601 295 601 291 602 441 602 292 602 293 603 292 603 294 603 441 604 296 604 295 604 510 605 295 605 296 605 510 606 294 606 295 606 444 607 300 607 296 607 512 608 296 608 300 608 441 609 444 609 296 609 512 610 510 610 296 610 299 611 298 611 300 611 297 612 300 612 298 612 444 613 299 613 300 613 297 614 512 614 300 614 439 615 303 615 298 615 301 616 298 616 303 616 302 617 439 617 298 617 299 618 302 618 298 618 301 619 297 619 298 619 438 620 304 620 303 620 515 621 303 621 304 621 439 622 438 622 303 622 515 623 301 623 303 623 306 624 305 624 304 624 307 625 304 625 305 625 438 626 306 626 304 626 307 627 515 627 304 627 308 628 309 628 305 628 517 629 305 629 309 629 306 630 308 630 305 630 517 631 307 631 305 631 312 632 311 632 309 632 310 633 309 633 311 633 308 634 312 634 309 634 310 635 517 635 309 635 312 636 313 636 311 636 314 637 311 637 313 637 314 638 310 638 311 638 391 639 316 639 313 639 520 640 313 640 316 640 312 641 391 641 313 641 520 642 314 642 313 642 391 643 315 643 316 643 521 644 316 644 315 644 521 645 520 645 316 645 391 646 319 646 315 646 317 647 315 647 319 647 317 648 521 648 315 648 320 649 318 649 319 649 522 650 319 650 318 650 391 651 320 651 319 651 522 652 317 652 319 652 321 653 322 653 318 653 323 654 318 654 322 654 320 655 321 655 318 655 323 656 522 656 318 656 321 657 326 657 322 657 324 658 322 658 326 658 324 659 323 659 322 659 327 660 328 660 326 660 325 661 326 661 328 661 321 662 327 662 326 662 325 663 324 663 326 663 388 664 330 664 328 664 519 665 328 665 330 665 327 666 388 666 328 666 519 667 325 667 328 667 388 668 329 668 330 668 518 669 330 669 329 669 518 670 519 670 330 670 331 671 333 671 329 671 332 672 329 672 333 672 388 673 331 673 329 673 332 674 518 674 329 674 334 675 336 675 333 675 335 676 333 676 336 676 331 677 334 677 333 677 335 678 332 678 333 678 383 679 337 679 336 679 516 680 336 680 337 680 334 681 383 681 336 681 516 682 335 682 336 682 340 683 339 683 337 683 514 684 337 684 339 684 383 685 340 685 337 685 514 686 516 686 337 686 338 687 343 687 339 687 513 688 339 688 343 688 380 689 338 689 339 689 340 690 380 690 339 690 513 691 514 691 339 691 341 692 345 692 343 692 342 693 343 693 345 693 338 694 341 694 343 694 342 695 513 695 343 695 341 696 344 696 345 696 511 697 342 697 345 697 352 698 349 698 347 698 351 699 347 699 349 699 355 700 352 700 347 700 469 701 355 701 347 701 346 702 469 702 347 702 477 703 346 703 347 703 494 704 477 704 347 704 585 705 494 705 347 705 348 706 347 706 351 706 585 707 347 707 348 707 351 708 349 708 352 708 350 709 352 709 355 709 350 710 353 710 352 710 351 711 352 711 353 711 469 712 356 712 355 712 354 713 355 713 356 713 582 714 350 714 355 714 354 715 582 715 355 715 358 716 357 716 356 716 354 717 356 717 357 717 469 718 358 718 356 718 465 719 360 719 357 719 583 720 357 720 360 720 358 721 465 721 357 721 354 722 357 722 583 722 364 723 361 723 360 723 363 724 360 724 361 724 362 725 364 725 360 725 269 726 362 726 360 726 465 727 269 727 360 727 359 728 360 728 363 728 583 729 360 729 359 729 363 730 361 730 364 730 571 731 364 731 362 731 571 732 170 732 364 732 363 733 364 733 170 733 581 734 362 734 260 734 365 735 571 735 362 735 581 736 365 736 362 736 581 737 260 737 263 737 366 738 263 738 256 738 581 739 263 739 366 739 370 740 367 740 256 740 368 741 256 741 367 741 580 742 256 742 368 742 366 743 256 743 580 743 368 744 367 744 370 744 369 745 370 745 251 745 369 746 162 746 370 746 368 747 370 747 162 747 373 748 251 748 372 748 371 749 369 749 251 749 373 750 371 750 251 750 373 751 372 751 248 751 579 752 248 752 250 752 373 753 248 753 579 753 376 754 374 754 250 754 153 755 250 755 374 755 578 756 250 756 153 756 579 757 250 757 578 757 153 758 374 758 376 758 344 759 375 759 376 759 377 760 376 760 375 760 377 761 154 761 376 761 153 762 376 762 154 762 379 763 375 763 344 763 577 764 377 764 375 764 379 765 577 765 375 765 379 766 344 766 341 766 378 767 341 767 338 767 379 768 341 768 378 768 382 769 338 769 380 769 381 770 338 770 382 770 378 771 338 771 381 771 382 772 380 772 340 772 383 773 385 773 340 773 384 774 340 774 385 774 629 775 382 775 340 775 384 776 629 776 340 776 386 777 385 777 383 777 384 778 385 778 387 778 386 779 387 779 385 779 386 780 383 780 334 780 627 781 334 781 331 781 386 782 334 782 627 782 141 783 331 783 388 783 389 784 331 784 141 784 627 785 331 785 389 785 141 786 388 786 327 786 321 787 390 787 327 787 631 788 327 788 390 788 140 789 141 789 327 789 631 790 140 790 327 790 622 791 390 791 321 791 631 792 390 792 621 792 622 793 621 793 390 793 622 794 321 794 320 794 428 795 393 795 320 795 623 796 320 796 393 796 391 797 428 797 320 797 622 798 320 798 623 798 392 799 395 799 393 799 394 800 393 800 395 800 428 801 392 801 393 801 624 802 393 802 394 802 623 803 393 803 624 803 401 804 396 804 395 804 394 805 395 805 396 805 424 806 401 806 395 806 392 807 424 807 395 807 401 808 397 808 396 808 635 809 396 809 397 809 634 810 394 810 396 810 635 811 634 811 396 811 399 812 397 812 401 812 635 813 397 813 398 813 399 814 398 814 397 814 402 815 400 815 401 815 399 816 401 816 400 816 425 817 402 817 401 817 424 818 425 818 401 818 402 819 408 819 400 819 403 820 400 820 408 820 399 821 400 821 403 821 413 822 404 822 408 822 409 823 408 823 404 823 406 824 413 824 408 824 405 825 406 825 408 825 402 826 405 826 408 826 407 827 408 827 409 827 403 828 408 828 407 828 410 829 411 829 404 829 409 830 404 830 411 830 413 831 410 831 404 831 619 832 411 832 410 832 116 833 409 833 411 833 619 834 116 834 411 834 412 835 410 835 413 835 619 836 410 836 616 836 412 837 616 837 410 837 415 838 414 838 413 838 412 839 413 839 414 839 406 840 415 840 413 840 617 841 414 841 415 841 412 842 414 842 617 842 416 843 418 843 415 843 417 844 415 844 418 844 420 845 416 845 415 845 406 846 420 846 415 846 615 847 415 847 417 847 617 848 415 848 615 848 417 849 418 849 416 849 637 850 416 850 420 850 107 851 417 851 416 851 637 852 107 852 416 852 612 853 420 853 406 853 637 854 420 854 419 854 612 855 419 855 420 855 612 856 406 856 405 856 610 857 405 857 402 857 612 858 405 858 610 858 423 859 421 859 402 859 422 860 402 860 421 860 425 861 423 861 402 861 611 862 402 862 422 862 610 863 402 863 611 863 422 864 421 864 423 864 639 865 423 865 425 865 97 866 422 866 423 866 639 867 97 867 423 867 427 868 425 868 424 868 639 869 425 869 426 869 427 870 426 870 425 870 427 871 424 871 392 871 609 872 392 872 428 872 427 873 392 873 609 873 432 874 431 874 428 874 429 875 428 875 431 875 391 876 432 876 428 876 430 877 428 877 429 877 609 878 428 878 430 878 429 879 431 879 432 879 434 880 432 880 391 880 434 881 237 881 432 881 429 882 432 882 237 882 433 883 391 883 312 883 607 884 434 884 391 884 433 885 607 885 391 885 433 886 312 886 308 886 435 887 308 887 306 887 433 888 308 888 435 888 438 889 436 889 306 889 231 890 306 890 436 890 437 891 306 891 231 891 435 892 306 892 437 892 231 893 436 893 438 893 599 894 438 894 439 894 599 895 598 895 438 895 231 896 438 896 598 896 605 897 439 897 302 897 600 898 599 898 439 898 605 899 600 899 439 899 605 900 302 900 299 900 440 901 299 901 444 901 605 902 299 902 440 902 441 903 442 903 444 903 443 904 444 904 442 904 445 905 444 905 443 905 440 906 444 906 445 906 443 907 442 907 441 907 291 908 448 908 441 908 603 909 441 909 448 909 603 910 446 910 441 910 443 911 441 911 446 911 449 912 448 912 291 912 603 913 448 913 447 913 449 914 447 914 448 914 449 915 291 915 451 915 453 916 451 916 450 916 449 917 451 917 453 917 452 918 450 918 288 918 454 919 450 919 452 919 453 920 450 920 454 920 452 921 288 921 456 921 457 922 455 922 456 922 550 923 456 923 455 923 550 924 219 924 456 924 452 925 456 925 219 925 589 926 455 926 457 926 458 927 550 927 455 927 589 928 458 928 455 928 589 929 457 929 459 929 590 930 459 930 460 930 589 931 459 931 590 931 461 932 460 932 280 932 591 933 460 933 461 933 590 934 460 934 591 934 461 935 280 935 462 935 276 936 463 936 462 936 552 937 462 937 463 937 552 938 464 938 462 938 461 939 462 939 464 939 588 940 463 940 276 940 555 941 552 941 463 941 588 942 555 942 463 942 588 943 276 943 269 943 467 944 269 944 465 944 588 945 269 945 467 945 466 946 465 946 358 946 468 947 465 947 466 947 467 948 465 948 468 948 469 949 472 949 358 949 466 950 358 950 472 950 469 951 471 951 472 951 470 952 472 952 471 952 470 953 204 953 472 953 466 954 472 954 204 954 473 955 471 955 469 955 474 956 470 956 471 956 473 957 474 957 471 957 473 958 469 958 346 958 475 959 346 959 477 959 473 960 346 960 475 960 483 961 476 961 477 961 587 962 477 962 476 962 487 963 483 963 477 963 494 964 487 964 477 964 478 965 477 965 587 965 475 966 477 966 478 966 480 967 479 967 476 967 587 968 476 968 479 968 483 969 480 969 476 969 562 970 479 970 480 970 562 971 197 971 479 971 587 972 479 972 197 972 482 973 480 973 483 973 481 974 562 974 480 974 482 975 481 975 480 975 490 976 484 976 483 976 482 977 483 977 484 977 487 978 490 978 483 978 489 979 484 979 490 979 482 980 484 980 489 980 492 981 491 981 490 981 485 982 490 982 491 982 486 983 492 983 490 983 487 984 486 984 490 984 488 985 490 985 485 985 489 986 490 986 488 986 485 987 491 987 492 987 564 988 492 988 486 988 564 989 191 989 492 989 485 990 492 990 191 990 493 991 486 991 487 991 584 992 564 992 486 992 493 993 584 993 486 993 493 994 487 994 494 994 493 995 494 995 585 995 53 996 2 996 495 996 55 997 2 997 53 997 0 998 2 998 55 998 496 999 495 999 497 999 53 1000 495 1000 496 1000 498 1001 497 1001 11 1001 496 1002 497 1002 498 1002 46 1003 11 1003 499 1003 498 1004 11 1004 46 1004 501 1005 499 1005 500 1005 46 1006 499 1006 501 1006 44 1007 500 1007 502 1007 501 1008 500 1008 44 1008 41 1009 502 1009 503 1009 44 1010 502 1010 41 1010 39 1011 503 1011 504 1011 41 1012 503 1012 39 1012 40 1013 504 1013 21 1013 39 1014 504 1014 40 1014 505 1015 21 1015 506 1015 40 1016 21 1016 505 1016 507 1017 506 1017 22 1017 505 1018 506 1018 507 1018 30 1019 22 1019 25 1019 507 1020 22 1020 30 1020 508 1021 25 1021 27 1021 30 1022 25 1022 508 1022 509 1023 294 1023 510 1023 246 1024 294 1024 509 1024 293 1025 294 1025 246 1025 511 1026 510 1026 512 1026 509 1027 510 1027 511 1027 342 1028 512 1028 297 1028 511 1029 512 1029 342 1029 513 1030 297 1030 301 1030 342 1031 297 1031 513 1031 514 1032 301 1032 515 1032 513 1033 301 1033 514 1033 516 1034 515 1034 307 1034 514 1035 515 1035 516 1035 335 1036 307 1036 517 1036 516 1037 307 1037 335 1037 332 1038 517 1038 310 1038 335 1039 517 1039 332 1039 518 1040 310 1040 314 1040 332 1041 310 1041 518 1041 519 1042 314 1042 520 1042 518 1043 314 1043 519 1043 325 1044 520 1044 521 1044 519 1045 520 1045 325 1045 324 1046 521 1046 317 1046 325 1047 521 1047 324 1047 323 1048 317 1048 522 1048 324 1049 317 1049 323 1049 0 1050 55 1050 523 1050 524 1051 523 1051 62 1051 0 1052 523 1052 524 1052 525 1053 62 1053 63 1053 524 1054 62 1054 525 1054 527 1055 63 1055 526 1055 525 1056 63 1056 527 1056 529 1057 526 1057 528 1057 527 1058 526 1058 529 1058 530 1059 528 1059 68 1059 529 1060 528 1060 530 1060 531 1061 68 1061 69 1061 530 1062 68 1062 531 1062 89 1063 69 1063 75 1063 531 1064 69 1064 89 1064 85 1065 75 1065 73 1065 89 1066 75 1066 85 1066 533 1067 73 1067 532 1067 85 1068 73 1068 533 1068 534 1069 532 1069 535 1069 533 1070 532 1070 534 1070 536 1071 535 1071 78 1071 534 1072 535 1072 536 1072 293 1073 246 1073 245 1073 537 1074 245 1074 538 1074 293 1075 245 1075 537 1075 539 1076 538 1076 252 1076 537 1077 538 1077 539 1077 287 1078 252 1078 254 1078 539 1079 252 1079 287 1079 540 1080 254 1080 541 1080 287 1081 254 1081 540 1081 282 1082 541 1082 258 1082 540 1083 541 1083 282 1083 542 1084 258 1084 544 1084 282 1085 258 1085 542 1085 543 1086 544 1086 545 1086 542 1087 544 1087 543 1087 546 1088 545 1088 266 1088 543 1089 545 1089 546 1089 278 1090 266 1090 267 1090 546 1091 266 1091 278 1091 547 1092 267 1092 270 1092 278 1093 267 1093 547 1093 273 1094 270 1094 548 1094 547 1095 270 1095 273 1095 218 1096 219 1096 550 1096 458 1097 214 1097 550 1097 549 1098 550 1098 214 1098 551 1099 218 1099 550 1099 549 1100 551 1100 550 1100 458 1101 592 1101 214 1101 211 1102 464 1102 552 1102 555 1103 553 1103 552 1103 208 1104 552 1104 553 1104 554 1105 211 1105 552 1105 208 1106 554 1106 552 1106 555 1107 556 1107 553 1107 559 1108 204 1108 470 1108 474 1109 557 1109 470 1109 558 1110 470 1110 557 1110 206 1111 559 1111 470 1111 558 1112 206 1112 470 1112 474 1113 560 1113 557 1113 200 1114 197 1114 562 1114 481 1115 561 1115 562 1115 193 1116 562 1116 561 1116 198 1117 200 1117 562 1117 193 1118 198 1118 562 1118 481 1119 586 1119 561 1119 563 1120 191 1120 564 1120 584 1121 565 1121 564 1121 566 1122 564 1122 565 1122 187 1123 563 1123 564 1123 566 1124 187 1124 564 1124 584 1125 184 1125 565 1125 568 1126 353 1126 350 1126 582 1127 175 1127 350 1127 567 1128 350 1128 175 1128 178 1129 568 1129 350 1129 567 1130 178 1130 350 1130 582 1131 569 1131 175 1131 169 1132 170 1132 571 1132 365 1133 570 1133 571 1133 164 1134 571 1134 570 1134 171 1135 169 1135 571 1135 164 1136 171 1136 571 1136 365 1137 572 1137 570 1137 161 1138 162 1138 369 1138 371 1139 573 1139 369 1139 155 1140 369 1140 573 1140 160 1141 161 1141 369 1141 155 1142 160 1142 369 1142 371 1143 156 1143 573 1143 574 1144 154 1144 377 1144 577 1145 575 1145 377 1145 576 1146 377 1146 575 1146 148 1147 574 1147 377 1147 576 1148 148 1148 377 1148 145 1149 575 1149 577 1149 379 1150 145 1150 577 1150 578 1151 153 1151 156 1151 373 1152 156 1152 371 1152 579 1153 578 1153 156 1153 373 1154 579 1154 156 1154 580 1155 368 1155 572 1155 581 1156 572 1156 365 1156 366 1157 580 1157 572 1157 581 1158 366 1158 572 1158 359 1159 363 1159 569 1159 354 1160 569 1160 582 1160 583 1161 359 1161 569 1161 354 1162 583 1162 569 1162 348 1163 351 1163 184 1163 493 1164 184 1164 584 1164 585 1165 348 1165 184 1165 493 1166 585 1166 184 1166 488 1167 485 1167 586 1167 482 1168 586 1168 481 1168 489 1169 488 1169 586 1169 482 1170 489 1170 586 1170 478 1171 587 1171 560 1171 473 1172 560 1172 474 1172 475 1173 478 1173 560 1173 473 1174 475 1174 560 1174 468 1175 466 1175 556 1175 588 1176 556 1176 555 1176 467 1177 468 1177 556 1177 588 1178 467 1178 556 1178 591 1179 461 1179 592 1179 589 1180 592 1180 458 1180 590 1181 591 1181 592 1181 589 1182 590 1182 592 1182 454 1183 452 1183 220 1183 593 1184 447 1184 220 1184 449 1185 220 1185 447 1185 453 1186 454 1186 220 1186 449 1187 453 1187 220 1187 603 1188 447 1188 593 1188 604 1189 603 1189 593 1189 426 1190 239 1190 594 1190 639 1191 426 1191 594 1191 240 1192 639 1192 594 1192 595 1193 237 1193 434 1193 607 1194 234 1194 434 1194 597 1195 434 1195 234 1195 596 1196 595 1196 434 1196 597 1197 596 1197 434 1197 607 1198 608 1198 234 1198 230 1199 598 1199 599 1199 600 1200 601 1200 599 1200 228 1201 599 1201 601 1201 227 1202 230 1202 599 1202 228 1203 227 1203 599 1203 600 1204 606 1204 601 1204 602 1205 446 1205 603 1205 223 1206 602 1206 603 1206 604 1207 223 1207 603 1207 445 1208 443 1208 606 1208 605 1209 606 1209 600 1209 440 1210 445 1210 606 1210 605 1211 440 1211 606 1211 437 1212 231 1212 608 1212 433 1213 608 1213 607 1213 435 1214 437 1214 608 1214 433 1215 435 1215 608 1215 430 1216 429 1216 239 1216 427 1217 239 1217 426 1217 609 1218 430 1218 239 1218 427 1219 609 1219 239 1219 611 1220 422 1220 613 1220 614 1221 419 1221 613 1221 612 1222 613 1222 419 1222 610 1223 611 1223 613 1223 612 1224 610 1224 613 1224 614 1225 637 1225 419 1225 615 1226 417 1226 618 1226 113 1227 616 1227 618 1227 412 1228 618 1228 616 1228 617 1229 615 1229 618 1229 412 1230 617 1230 618 1230 113 1231 619 1231 616 1231 407 1232 409 1232 620 1232 125 1233 398 1233 620 1233 399 1234 620 1234 398 1234 403 1235 407 1235 620 1235 399 1236 403 1236 620 1236 125 1237 635 1237 398 1237 624 1238 394 1238 625 1238 135 1239 621 1239 625 1239 622 1240 625 1240 621 1240 623 1241 624 1241 625 1241 622 1242 623 1242 625 1242 135 1243 631 1243 621 1243 389 1244 141 1244 138 1244 626 1245 387 1245 138 1245 386 1246 138 1246 387 1246 627 1247 389 1247 138 1247 386 1248 627 1248 138 1248 626 1249 384 1249 387 1249 381 1250 382 1250 145 1250 378 1251 381 1251 145 1251 379 1252 378 1252 145 1252 628 1253 629 1253 384 1253 630 1254 384 1254 626 1254 143 1255 628 1255 384 1255 630 1256 143 1256 384 1256 137 1257 140 1257 631 1257 633 1258 631 1258 135 1258 632 1259 137 1259 631 1259 633 1260 632 1260 631 1260 133 1261 634 1261 635 1261 130 1262 635 1262 125 1262 129 1263 133 1263 635 1263 130 1264 129 1264 635 1264 120 1265 116 1265 619 1265 114 1266 619 1266 113 1266 636 1267 120 1267 619 1267 114 1268 636 1268 619 1268 110 1269 107 1269 637 1269 102 1270 637 1270 614 1270 106 1271 110 1271 637 1271 102 1272 106 1272 637 1272 638 1273 97 1273 639 1273 242 1274 638 1274 639 1274 240 1275 242 1275 639 1275</p>
                </triangles>
            </mesh>
        </geometry>
    </library_geometries>
    <library_visual_scenes>
        <visual_scene id="VisualSceneNode" name="VisualScene">
            <node id="node" name="node">
                <instance_geometry url="#shape0-lib">
                    <bind_material>
                        <technique_common/>
                    </bind_material>
                </instance_geometry>
            </node>
        </visual_scene>
    </library_visual_scenes>
    <scene>
        <instance_visual_scene url="#VisualSceneNode"/>
    </scene>
</COLLADA>
